…
The full results are returned as a list and can be saved to disk as an R object (`?save`) for later analysis if desired.

3. Tidy records into a data.frame (limited information is retained).


```r
cb_pm <- tidy_pub_records(cb_pm_res)
```

**Result:**

```
#> # A tibble: 58 × 10
#>    first_author  title journal pub_date   doi   pmid  pmcid cites pub_type
#>    <chr>         <chr> <chr>   <date>     <chr> <chr> <chr> <chr> <chr>   
#>  1 Amberger JS   OMIM… Nuclei… 2019-01-08 10.1… 3044… PMC6… 2959… Journal…
#>  2 Baldarelli RM The … Nuclei… 2021-01-08 10.1… 3310… PMC7… 2959… Journal…
#>  3 Bello SM      Dise… Dis Mo… 2018-03-12 10.1… 2959… PMC5… 2609… Journal…
#>  4 Bradford YM   Zebr… ILAR J  2017-07-01 10.1… 2883… PMC5… 2609… Journal…
#>  5 Casaletto J   Fede… Cell G… 2022-03-09 10.1… 3537… PMC8… 2609… Journal…
#>  6 El-Sappagh S  DMTO… J Biom… 2018-02-06 10.1… 2940… PMC5… 2609… Journal…
#>  7 Elmore SA     A Re… ILAR J  2018-12-01 10.1… 3047… PMC6… 2959… Journal…
#>  8 Eppig JT      Mous… ILAR J  2017-07-01 10.1… 2883… PMC5… 2609… Journal…
#>  9 Fernández-To… Inte… Nat Co… 2022-09-09 10.1… 3608… PMC9… 2959… Journal…
#> 10 Finke MT      Inte… J Am M… 2019-02-01 10.1… 3062… PMC7… 2609… Journal…
#> # … with 48 more rows, and 1 more variable: added_dt <dttm>
```
…
The full results are returned as a list and can be saved to disk as an R object (`?save`) for later analysis if desired.

3. Tidy records into a data.frame (limited information is retained).


```r
cb_scopus <- tidy_pub_records(cb_scopus_res)
```

**Result:**

```
#> # A tibble: 92 × 10
#>    first_author  title   journal   pub_date   doi   pmid  scopus_eid cites
#>    <chr>         <chr>   <chr>     <date>     <chr> <chr> <chr>      <chr>
#>  1 Abburu S      Ontolo… Internat… 2018-07-01 10.4… <NA>  2-s2.0-85… 2609…
#>  2 Abburu S      Ontolo… Geospati… 2019-01-01 10.4… <NA>  2-s2.0-85… 2609…
#>  3 Al-Mubaid H   Gene m… Journal … 2018-10-01 10.1… 3041… 2-s2.0-85… 2609…
#>  4 Amberger JS   OMIM.o… Nucleic … 2019-01-08 10.1… 3044… 2-s2.0-85… 2959…
#>  5 Baldarelli RM The mo… Nucleic … 2021-01-08 10.1… 3310… 2-s2.0-85… 2959…
#>  6 Barcellos Al… Ontolo… Journal … 2017-11-01 10.1… <NA>  2-s2.0-85… 2609…
#>  7 Bello SM      Diseas… DMM Dise… 2018-03-01 10.1… 2959… 2-s2.0-85… 2609…
#>  8 Bradford Y    Zebraf… ILAR Jou… 2017-07-01 10.1… 2883… 2-s2.0-85… 2609…
#>  9 Chen F        Identi… Patholog… 2018-12-01 10.1… 3047… 2-s2.0-85… 2609…
#> 10 Chen F        Identi… Journal … 2019-06-01 10.1… 3053… 2-s2.0-85… 2609…
#> # … with 82 more rows, and 2 more variables: pub_type <chr>,
#> #   added_dt <dttm>
```
…
The full results are returned as a list and can be saved to disk as an R object (`?save`) for later analysis if desired.

4. Tidy records into a data.frame (limited information is retained).


```r
search_pm <- tidy_pub_records(pm_doid_res)
```

**Result:**

```
#> # A tibble: 22 × 9
#>    first_author title     journal   pub_date   doi    pmid  pmcid pub_type
#>    <chr>        <chr>     <chr>     <date>     <chr>  <chr> <chr> <chr>   
#>  1 Althubaiti S Combinin… J Biomed… 2020-01-13 10.11… 3193… PMC6… Journal…
#>  2 Fang H       DcGO: da… Nucleic … 2013-01-01 10.10… 2316… PMC3… Journal…
#>  3 Good BM      Mining t… BMC Geno… 2011-12-13 10.11… 2216… PMC3… Journal…
#>  4 Hoehndorf R  Identify… Bioinfor… 2012-08-15 10.10… 2271… PMC3… Journal…
#>  5 Hofer P      Semi-Aut… Stud Hea… 2016-01-01 <NA>   2757… <NA>  Journal…
#>  6 Jupp S       Logical … J Biomed… 2012-04-24 10.11… 2254… PMC3… Journal…
#>  7 Kibbe WA     Disease … Nucleic … 2015-01-01 10.10… 2534… PMC4… Journal…
#>  8 LePendu P    Enabling… J Biomed… 2011-12-01 10.10… 2155… PMC3… Journal…
#>  9 Maes M       Aberrati… Front Ps… 2022-05-06 10.33… 3559… PMC9… Journal…
#> 10 Marquet G    Aligning… Stud Hea… 2006-01-01 <NA>   1710… <NA>  Journal…
#> # … with 12 more rows, and 1 more variable: added_dt <dttm>
```
…
```r
uniq_records <- dplyr::bind_rows(cb_pm, cb_scopus, search_pm, myncbi_pm) |>
    # concatenate source info
    dplyr::group_by(record_n) |>
    dplyr::mutate(source = paste0(unique(source), collapse = "; ")) |>
    dplyr::ungroup() |>
    # drop duplicates
    dplyr::filter(duplicated(record_n))
```

**Result:**

```r
uniq_records
#> # A tibble: 56 × 13
#>    first_author  title journal pub_date   doi   pmid  pmcid cites pub_type
#>    <chr>         <chr> <chr>   <date>     <chr> <chr> <chr> <chr> <chr>   
#>  1 Amberger JS   OMIM… Nuclei… 2019-01-08 10.1… 3044… <NA>  2959… Journal…
#>  2 Baldarelli RM The … Nuclei… 2021-01-08 10.1… 3310… <NA>  2959… Journal…
#>  3 Bello SM      Dise… DMM Di… 2018-03-01 10.1… 2959… <NA>  2609… Journal…
#>  4 Bradford Y    Zebr… ILAR J… 2017-07-01 10.1… 2883… <NA>  2609… Journal…
#>  5 De Evsikova … The … Journa… 2019-06-01 10.3… <NA>  <NA>  2959… Journal…
#>  6 El-Sappagh S  DMTO… Journa… 2018-02-06 10.1… 2940… <NA>  2609… Journal…
#>  7 Elmore SA     A Re… ILAR J… 2018-12-01 10.1… 3047… <NA>  2959… Journal…
#>  8 Eppig JT      Mous… ILAR J… 2017-07-01 10.1… 2883… <NA>  2609… Journal…
#>  9 Fernández-To… Inte… Nature… 2022-12-01 10.1… 3608… <NA>  2959… Journal…
#> 10 Finke MT      Inte… Journa… 2019-02-01 10.1… 3062… <NA>  2609… Journal…
#> # … with 46 more rows, and 4 more variables: added_dt <dttm>,
#> #   record_n <int>, source <chr>, scopus_eid <chr>
```
…
**2B. No data loss, possible duplication:** Combine record sets by specifying columns to concatenate unique values with `collapse_col()` (see `?collapse_col` for details). If values in these columns are the same, only one will be retained. If they differ, they will be concatenated. At a minimum, record number and record set identifier columns should be collapsed.

> NOTE: `collapse_col()` will _only_ collapse records that have identical non-collapsing columns. Even small differences in punctuation or case will prevent record de-duplication in favor of preserving information. Records will be increasingly de-duplicated as more columns are specified for collapse but care should be taken to avoid merging truly distinct records.


```r
complete_records <- dplyr::bind_rows(cb_pm, cb_scopus) |>
    collapse_col(.cols = c(record_n, source))
```

**Result:**

```r
complete_records
#> # A tibble: 150 × 13
#>    first_author  title journal pub_date   doi   pmid  pmcid cites pub_type
#>    <chr>         <chr> <chr>   <date>     <chr> <chr> <chr> <chr> <chr>   
#>  1 Abburu S      Onto… Intern… 2018-07-01 10.4… <NA>  <NA>  2609… Journal…
#>  2 Abburu S      Onto… Geospa… 2019-01-01 10.4… <NA>  <NA>  2609… Book|Bo…
#>  3 Al-Mubaid H   Gene… Journa… 2018-10-01 10.1… 3041… <NA>  2609… Journal…
#>  4 Amberger JS   OMIM… Nuclei… 2019-01-08 10.1… 3044… <NA>  2959… Journal…
#>  5 Amberger JS   OMIM… Nuclei… 2019-01-08 10.1… 3044… PMC6… 2959… Journal…
#>  6 Baldarelli RM The … Nuclei… 2021-01-08 10.1… 3310… <NA>  2959… Journal…
#>  7 Baldarelli RM The … Nuclei… 2021-01-08 10.1… 3310… PMC7… 2959… Journal…
#>  8 Barcellos Al… Onto… Journa… 2017-11-01 10.1… <NA>  <NA>  2609… Journal…
#>  9 Bello SM      Dise… DMM Di… 2018-03-01 10.1… 2959… <NA>  2609… Journal…
#> 10 Bello SM      Dise… Dis Mo… 2018-03-12 10.1… 2959… PMC5… 2609… Journal…
#> # … with 140 more rows, and 4 more variables: added_dt <dttm>,
#> #   record_n <chr>, source <chr>, scopus_eid <chr>
```
…
